<svg width="10" height="16" viewBox="0 0 10 16" fill="none" xmlns="http://www.w3.org/2000/svg">
<path d="M0.341509 1.75259C-0.0741272 1.38891 -0.116245 0.757144 0.247437 0.341509C0.611118 -0.0741274 1.24288 -0.116245 1.65852 0.247437L9.65851 7.24742C10.1138 7.64584 10.1138 8.35417 9.65851 8.75258L1.65852 15.7526C1.24288 16.1162 0.611118 16.0741 0.247437 15.6585C-0.116245 15.2429 -0.0741272 14.6111 0.341509 14.2474L7.48141 8L0.341509 1.75259Z" fill="#233143"/>
</svg>
